<svg width="30" height="30" viewBox="0 0 30 30" fill="none" xmlns="http://www.w3.org/2000/svg">
<mask id="mask0" mask-type="alpha" maskUnits="userSpaceOnUse" x="0" y="0" width="30" height="30">
<circle cx="15" cy="15" r="15" fill="#C4C4C4"/>
</mask>
<g mask="url(#mask0)">
<rect x="-5" width="40" height="15" fill="#CD2029"/>
<rect x="-5" y="15" width="40" height="15" fill="#F3F4F5"/>
</g>
</svg>
